<?xml version="1.0" standalone="no"?>
<!DOCTYPE svg PUBLIC "-//W3C//DTD SVG 20010904//EN"
 "http://www.w3.org/TR/2001/REC-SVG-20010904/DTD/svg10.dtd">
<svg version="1.0" xmlns="http://www.w3.org/2000/svg"
 width="700.000000pt" height="700.000000pt" viewBox="0 0 700.000000 700.000000"
 preserveAspectRatio="xMidYMid meet">
<metadata>
Created by potrace 1.11, written by Peter Selinger 2001-2013
</metadata>
<g transform="translate(0.000000,700.000000) scale(0.100000,-0.100000)"
fill="#000000" stroke="none">
<path d="M1255 6993 c-179 -23 -313 -62 -461 -133 -396 -187 -665 -533 -766
-981 l-23 -104 0 -2275 0 -2275 23 -102 c125 -565 530 -970 1095 -1095 l102
-23 2275 0 2275 0 102 23 c565 125 970 530 1095 1095 l23 102 0 2275 0 2275
-23 102 c-125 566 -521 964 -1090 1095 l-97 22 -2250 2 c-1237 1 -2263 -1
-2280 -3z m1024 -1979 c128 -18 287 -70 394 -127 262 -139 448 -395 472 -649
3 -34 8 -78 11 -95 l5 -33 -255 0 -254 0 -6 28 c-2 15 -7 44 -11 65 -27 168
-204 335 -416 393 -94 26 -317 24 -421 -4 -218 -59 -345 -196 -356 -384 -6
-105 16 -173 80 -243 81 -88 227 -148 563 -230 509 -123 742 -228 916 -412
123 -131 170 -248 176 -448 9 -245 -55 -420 -212 -580 -162 -165 -387 -270
-667 -311 -154 -22 -461 -15 -595 15 -280 62 -513 193 -662 373 -72 85 -162
262 -185 358 -8 36 -18 95 -22 133 l-6 67 254 0 255 0 6 -53 c22 -179 135
-332 310 -417 127 -61 195 -74 387 -75 195 0 279 16 399 76 179 89 260 234
231 415 -22 137 -98 231 -243 302 -109 55 -202 84 -447 142 -237 57 -306 76
-427 120 -340 125 -535 303 -600 550 -23 87 -23 271 0 360 87 335 409 595 827
665 108 19 371 18 499 -1z m3170 0 c202 -35 325 -95 453 -224 77 -77 93 -100
141 -201 30 -63 63 -143 72 -179 49 -183 48 -159 52 -1307 l4 -1083 -256 0
-255 0 0 1034 c0 1160 1 1133 -70 1282 -92 192 -259 271 -548 262 -117 -4
-149 -9 -221 -33 -177 -60 -340 -200 -440 -376 l-31 -56 0 -1056 0 -1057 -255
0 -255 0 0 1480 0 1480 239 0 238 0 6 -82 c4 -46 7 -120 7 -165 0 -45 3 -88 6
-97 4 -11 28 8 92 72 163 164 356 267 575 307 103 19 334 18 446 -1z"/>
</g>
</svg>
